[
    
        {
            "supplierinfo" : [
                { 
                    "consumerid" : "71",
                    "companyname" : "Pri B",
                    "emailaddress" : "test_priyanka@mailinator.com",
                    "title" : ""
                }
            ]
        },
        {
            "contactusformfields" : [
                
                    {
                        "statuscontactus": "",
                        "fieldid" : "thankyoumessaging",
                        "fieldlabel" : "",
                        "fieldname" : "",
                        "contenttitle" : "Thank you",
                        "description" : "Your email has been submitted.",
                        "type" : "",
                        "fielderrormessage" : "",
                        "fieldvalidationtype" : "",
                        "statusvalidation" : "",
                        "statusformviewasset" : "",
                        "statusformtrialrequest" : ""
                    },
                
                    {
                        "statuscontactus": "",
                        "fieldid" : "",
                        "fieldlabel" : "",
                        "fieldname" : "",
                        "contenttitle" : "Parker Hannifin",
                        "description" : "Mail from Contact Us:",
                        "type" : "",
                        "fielderrormessage" : "",
                        "fieldvalidationtype" : "",
                        "statusvalidation" : "",
                        "statusformviewasset" : "",
                        "statusformtrialrequest" : ""
                    },
                
                    {
                        "statuscontactus": "",
                        "fieldid" : "authorizationformheader",
                        "fieldlabel" : "",
                        "fieldname" : "viewassetheader",
                        "contenttitle" : "View Asset Authorization Form",
                        "description" : "You must register in order to view the asset you selected.  Please submit the form below.",
                        "type" : "",
                        "fielderrormessage" : "",
                        "fieldvalidationtype" : "",
                        "statusvalidation" : "",
                        "statusformviewasset" : "yes",
                        "statusformtrialrequest" : ""
                    },
                
                    {
                        "statuscontactus": "yes",
                        "fieldid" : "firstname",
                        "fieldlabel" : "First name *",
                        "fieldname" : "contactfirstname",
                        "contenttitle" : "",
                        "description" : "",
                        "type" : "field",
                        "fielderrormessage" : "First name field is required",
                        "fieldvalidationtype" : "mandatoryField",
                        "statusvalidation" : "yes",
                        "statusformviewasset" : "yes",
                        "statusformtrialrequest" : ""
                    },
                
                    {
                        "statuscontactus": "yes",
                        "fieldid" : "lastname",
                        "fieldlabel" : "Last name *",
                        "fieldname" : "contactlastname",
                        "contenttitle" : "",
                        "description" : "",
                        "type" : "field",
                        "fielderrormessage" : "Last name field is required",
                        "fieldvalidationtype" : "mandatoryField",
                        "statusvalidation" : "yes",
                        "statusformviewasset" : "yes",
                        "statusformtrialrequest" : ""
                    },
                
                    {
                        "statuscontactus": "no",
                        "fieldid" : "jobtitle",
                        "fieldlabel" : "Job title *",
                        "fieldname" : "jobtitle",
                        "contenttitle" : "",
                        "description" : "",
                        "type" : "field",
                        "fielderrormessage" : "Job title field is required",
                        "fieldvalidationtype" : "mandatoryField",
                        "statusvalidation" : "yes",
                        "statusformviewasset" : "",
                        "statusformtrialrequest" : ""
                    },
                
                    {
                        "statuscontactus": "yes",
                        "fieldid" : "companyname",
                        "fieldlabel" : "Company *",
                        "fieldname" : "companyname",
                        "contenttitle" : "",
                        "description" : "",
                        "type" : "field",
                        "fielderrormessage" : "Company name field is required",
                        "fieldvalidationtype" : "mandatoryField",
                        "statusvalidation" : "yes",
                        "statusformviewasset" : "yes",
                        "statusformtrialrequest" : ""
                    },
                
                    {
                        "statuscontactus": "no",
                        "fieldid" : "numberemployees",
                        "fieldlabel" : "Number ofemployees *",
                        "fieldname" : "numberemployees",
                        "contenttitle" : "",
                        "description" : "",
                        "type" : "field",
                        "fielderrormessage" : "",
                        "fieldvalidationtype" : "",
                        "statusvalidation" : "no",
                        "statusformviewasset" : "",
                        "statusformtrialrequest" : ""
                    },
                
                    {
                        "statuscontactus": "no",
                        "fieldid" : "postcode",
                        "fieldlabel" : "Zip or Postcode *",
                        "fieldname" : "postcode",
                        "contenttitle" : "",
                        "description" : "",
                        "type" : "field",
                        "fielderrormessage" : "Zip or Postcode field is required",
                        "fieldvalidationtype" : "mandatoryField",
                        "statusvalidation" : "yes",
                        "statusformviewasset" : "",
                        "statusformtrialrequest" : ""
                    },
                
                    {
                        "statuscontactus": "yes",
                        "fieldid" : "country",
                        "fieldlabel" : "Country *",
                        "fieldname" : "country",
                        "contenttitle" : "",
                        "description" : "",
                        "type" : "field",
                        "fielderrormessage" : "Country field is required",
                        "fieldvalidationtype" : "mandatoryField",
                        "statusvalidation" : "yes",
                        "statusformviewasset" : "yes",
                        "statusformtrialrequest" : ""
                    },
                
                    {
                        "statuscontactus": "no",
                        "fieldid" : "topic",
                        "fieldlabel" : "What topics would you like to discuss",
                        "fieldname" : "topic",
                        "contenttitle" : "",
                        "description" : "",
                        "type" : "field",
                        "fielderrormessage" : "",
                        "fieldvalidationtype" : "",
                        "statusvalidation" : "",
                        "statusformviewasset" : "",
                        "statusformtrialrequest" : ""
                    },
                
                    {
                        "statuscontactus": "yes",
                        "fieldid" : "state",
                        "fieldlabel" : "State *",
                        "fieldname" : "state",
                        "contenttitle" : "",
                        "description" : "",
                        "type" : "field",
                        "fielderrormessage" : "State field is required",
                        "fieldvalidationtype" : "mandatoryField",
                        "statusvalidation" : "yes",
                        "statusformviewasset" : "yes",
                        "statusformtrialrequest" : ""
                    },
                
                    {
                        "statuscontactus": "yes",
                        "fieldid" : "province",
                        "fieldlabel" : "Province *",
                        "fieldname" : "province",
                        "contenttitle" : "",
                        "description" : "",
                        "type" : "field",
                        "fielderrormessage" : "Province field is required",
                        "fieldvalidationtype" : "mandatoryField",
                        "statusvalidation" : "yes",
                        "statusformviewasset" : "yes",
                        "statusformtrialrequest" : ""
                    },
                
                    {
                        "statuscontactus": "yes",
                        "fieldid" : "phone",
                        "fieldlabel" : "Telephone number *",
                        "fieldname" : "phone",
                        "contenttitle" : "",
                        "description" : "",
                        "type" : "field",
                        "fielderrormessage" : "Telephone number field is required",
                        "fieldvalidationtype" : "mandatoryField",
                        "statusvalidation" : "yes",
                        "statusformviewasset" : "yes",
                        "statusformtrialrequest" : ""
                    },
                
                    {
                        "statuscontactus": "yes",
                        "fieldid" : "email",
                        "fieldlabel" : "Email address *",
                        "fieldname" : "email",
                        "contenttitle" : "",
                        "description" : "",
                        "type" : "field",
                        "fielderrormessage" : "Email address field is required",
                        "fieldvalidationtype" : "mandatoryEmail",
                        "statusvalidation" : "yes",
                        "statusformviewasset" : "yes",
                        "statusformtrialrequest" : ""
                    },
                
                    {
                        "statuscontactus": "yes",
                        "fieldid" : "interestarea",
                        "fieldlabel" : "Area of Interest *",
                        "fieldname" : "interestarea",
                        "contenttitle" : "",
                        "description" : "",
                        "type" : "field",
                        "fielderrormessage" : "Area of Interest field is required",
                        "fieldvalidationtype" : "mandatoryField",
                        "statusvalidation" : "yes",
                        "statusformviewasset" : "yes",
                        "statusformtrialrequest" : ""
                    },
                
                    {
                        "statuscontactus": "no",
                        "fieldid" : "question",
                        "fieldlabel" : "How can we help you?",
                        "fieldname" : "question",
                        "contenttitle" : "",
                        "description" : "",
                        "type" : "textarea",
                        "fielderrormessage" : "",
                        "fieldvalidationtype" : "",
                        "statusvalidation" : "",
                        "statusformviewasset" : "",
                        "statusformtrialrequest" : ""
                    },
                
                    {
                        "statuscontactus": "yes",
                        "fieldid" : "submitbutton",
                        "fieldlabel" : "Submit",
                        "fieldname" : "",
                        "contenttitle" : "",
                        "description" : "",
                        "type" : "submit",
                        "fielderrormessage" : "",
                        "fieldvalidationtype" : "",
                        "statusvalidation" : "",
                        "statusformviewasset" : "yes",
                        "statusformtrialrequest" : ""
                    },
                
                    {
                        "statuscontactus": "yes",
                        "fieldid" : "formheader",
                        "fieldlabel" : "",
                        "fieldname" : "",
                        "contenttitle" : "Contact",
                        "description" : "* indicates required fields",
                        "type" : "",
                        "fielderrormessage" : "",
                        "fieldvalidationtype" : "",
                        "statusvalidation" : "",
                        "statusformviewasset" : "",
                        "statusformtrialrequest" : ""
                    },
                
                    {
                        "statuscontactus": "yes",
                        "fieldid" : "addtomailing",
                        "fieldlabel" : "",
                        "fieldname" : "addtomailing",
                        "contenttitle" : "",
                        "description" : "Do you wish to be added to our mailing list?",
                        "type" : "checkbox",
                        "fielderrormessage" : "",
                        "fieldvalidationtype" : "",
                        "statusvalidation" : "",
                        "statusformviewasset" : "",
                        "statusformtrialrequest" : ""
                    },
                
                {}
            ]
        }
    
    ]